<svg xmlns="http://www.w3.org/2000/svg" viewBox="-5206.16 -17962.838 18 19.678">
  <path id="Path_938" data-name="Path 938" d="M18,9.3l-7.2,5.6V1a.945.945,0,0,0-1-1,.945.945,0,0,0-1,1V14.9L1.6,9.3a.988.988,0,0,0-1.4.2.978.978,0,0,0,.2,1.4l8.8,6.9a.1.1,0,0,1,.1.1h.1a.6.6,0,0,0,.4.1h0a.6.6,0,0,0,.4-.1h.1l.1-.1h.1L19.3,11a1.075,1.075,0,0,0,.2-1.4A1.045,1.045,0,0,0,18,9.3Z" transform="translate(-5188.16 -17962.835) rotate(90)"/>
</svg>
