<svg xmlns="http://www.w3.org/2000/svg" viewBox="-21215.641 -24019 12.898 20.801">
  <defs>
    <style>
      .cls-1 {
        fill: #be4b89;
      }
    </style>
  </defs>
  <g id="Group_19" data-name="Group 19" transform="translate(-21215.64 -24019)">
    <path id="Path_61" data-name="Path 61" class="cls-1" d="M12.418.621A2.34,2.34,0,0,0,10.71,0H2.1A2.087,2.087,0,0,0,0,2.1V18.7a2.087,2.087,0,0,0,2.1,2.1H10.71a2.138,2.138,0,0,0,2.1-2.1l.078-15.755V2.1A1.889,1.889,0,0,0,12.418.621ZM1.087,3.648H11.719l-.078,11.875H1.087ZM2.1,1.087H10.71a.991.991,0,0,1,.854.31.949.949,0,0,1,.233.7v.466H1.087V2.1A1.027,1.027,0,0,1,2.1,1.087ZM10.71,19.713H2.1A.962.962,0,0,1,1.164,18.7V16.687H11.642V18.7A.962.962,0,0,1,10.71,19.713Z"/>
    <path id="Path_62" data-name="Path 62" class="cls-1" d="M8.706,22.7H6.843a.543.543,0,1,0,0,1.087H8.706a.543.543,0,1,0,0-1.087Z" transform="translate(-1.41 -5.082)"/>
  </g>
</svg>
