<svg xmlns="http://www.w3.org/2000/svg" viewBox="-20949 -24155 11.436 6.57">
  <defs>
    <style>
      .cls-1 {
        fill: #fff;
      }
    </style>
  </defs>
  <path id="Path_73" data-name="Path 73" class="cls-1" d="M11.187.25a.8.8,0,0,0-1.164,0L5.7,4.533,1.414.25A.821.821,0,0,0,.832,0,.821.821,0,0,0,.25.25.821.821,0,0,0,0,.832a.821.821,0,0,0,.25.582L5.115,6.321a.8.8,0,0,0,1.164,0l4.907-4.907a.821.821,0,0,0,.25-.582A.821.821,0,0,0,11.187.25Z" transform="translate(-20949 -24155)"/>
</svg>
